<?xml version="1.0" standalone="no"?>
<!DOCTYPE svg PUBLIC "-//W3C//DTD SVG 1.1//EN" "http://www.w3.org/Graphics/SVG/1.1/DTD/svg11.dtd">
<svg xmlns="http://www.w3.org/2000/svg">
<metadata>Generated by Fontastic.me</metadata>
<defs>
<font id="thinkster-font" horiz-adv-x="512">
<font-face font-family="thinkster-font" units-per-em="512" ascent="480" descent="-32"/>
<missing-glyph horiz-adv-x="512" />

<glyph glyph-name="buddhist" unicode="&#97;" d="M271 394c0-8-7-15-15-15-8 0-15 7-15 15 0 9 7 16 15 16 8 0 15-7 15-16z m0-182l-30 0c-7 0-13-5-13-12 0-7 6-13 13-13l30 0c7 0 13 6 13 13 0 7-6 12-13 12z m128-148l-25 0c-21 0-39 17-39 38l0 45c15 14 26 31 31 51 32 4 56 31 56 63 0 31-22 57-51 63l0 34c0 31-12 60-34 82-21 22-50 34-81 34-64 0-115-52-115-116l0-34c-29-6-51-32-51-63 0-32 24-59 56-63 5-19 15-35 29-49 0-1 1-1 2-2l0-45c0-21-18-38-39-38l-25 0c-7 0-13-6-13-13 0-7 6-13 13-13l25 0c36 0 64 29 64 64l0 26c17-8 35-13 54-13 19 0 38 5 54 14l0-27c0-35 28-64 64-64l25 0c7 0 13 6 13 13 0 7-6 13-13 13z m-28 166l0 67c15-5 26-19 26-36 0-17-11-31-26-36 0 2 0 4 0 5z m-256 31c0 17 11 31 26 36l0-67c0-1 0-3 0-5-15 5-26 19-26 36z m231 64l-46 0 0 8c0 6 9 13 23 13 13 0 23-7 23-13z m-180 8c0 4 12 13 31 13 19 0 31-9 31-13l0-8-62 0z m90-192c-24 0-46 9-63 26-13 13-21 28-25 46-1 5-2 11-2 17l0 70 62 0 0-54c0-7 6-13 13-13l30 0c7 0 13 6 13 13 0 7-6 13-13 13l-18 0 0 74c0 21-24 38-56 38-11 0-22-2-30-6 3 46 42 83 89 83 24 0 46-9 63-26 15-15 24-34 26-55-7 3-14 4-22 4-28 0-49-17-49-38l0-21c0-7 6-12 13-12l59 0 0-70c0-6-1-12-2-17-8-42-45-72-88-72z"/>
<glyph glyph-name="catholic" unicode="&#98;" d="M410 204l0 0c-3 110-55 197-144 268l-1-1 0 1c-89-71-141-158-144-268l0 0 0 0c0 0 0-2 0-2l23-178 242 0 24 178c0 0 0 1 0 2z m-24-186l-242 0c-3 0-6 3-7 6l-23 178c0 0 0 1 0 1l0 1 0 0c0 0 0 1 0 1 3 106 52 197 146 272 2 1 4 2 5 2 2 0 4-1 5-2 95-75 144-166 147-272 0 0 0-1 0-1l0 0 0-1c0 0 0-1 0-1l-24-178c0-3-3-6-7-6z m-236 14l230 0 22 171 0 1c0 0 0 0 0 0 0 0 0 0 0 0-2 102-47 187-137 259-90-72-135-157-137-259 0 0-1 0-1 0 0 0 0 0 0 0l1-1z m247 65c-1 0-1 0-2 1-31 7-95 14-95 14-4 0-6 3-6 7l0 320c0 4 3 7 7 7 3 0 6-3 6-7l0-314c17-2 65-7 91-14 4-1 6-5 6-8-1-4-4-6-7-6z m-262 0c-3 0-6 2-7 6-1 3 2 7 5 8 27 7 74 12 91 14l0 314c0 4 3 7 7 7 4 0 7-3 7-7l0-320c0-4-2-7-6-7-1 0-64-7-95-14-1-1-1-1-2-1z m138 306c-1 0-2 1-3 2l-17 17c-2 2-2 4 0 6 1 2 4 2 6 0l17-18c2-1 2-4 0-5-1-1-2-2-3-2z m-17 0c-1 0-2 1-3 2-2 1-2 4 0 5l17 18c2 2 5 2 6 0 2-2 2-4 0-6l-17-17c-1-1-2-2-3-2z m17-38c-1 0-2 0-3 1l-17 17c-2 2-2 5 0 6 1 2 4 2 6 0l17-17c2-2 2-5 0-6-1-1-2-1-3-1z m-17 0c-1 0-2 0-3 1-2 1-2 4 0 6l17 17c2 2 5 2 6 0 2-1 2-4 0-6l-17-17c-1-1-2-1-3-1z m17-39c-1 0-2 0-3 1l-17 18c-2 1-2 4 0 6 1 1 4 1 6 0l17-18c2-2 2-4 0-6-1-1-2-1-3-1z m-17 0c-1 0-2 0-3 1-2 2-2 4 0 6l17 18c2 1 5 1 6 0 2-2 2-5 0-6l-17-18c-1-1-2-1-3-1z m17-39c-1 0-2 0-3 1l-17 18c-2 1-2 4 0 6 1 1 4 1 6 0l17-18c2-2 2-4 0-6-1-1-2-1-3-1z m-17 0c-1 0-2 0-3 1-2 2-2 4 0 6l17 18c2 1 5 1 6 0 2-2 2-5 0-6l-17-18c-1-1-2-1-3-1z m17-39c-1 0-2 1-3 1l-17 18c-2 2-2 4 0 6 1 2 4 2 6 0l17-18c2-1 2-4 0-6-1 0-2-1-3-1z m-17 0c-1 0-2 1-3 1-2 2-2 5 0 6l17 18c2 2 5 2 6 0 2-2 2-4 0-6l-17-18c-1 0-2-1-3-1z m17-39c-1 0-2 1-3 2l-17 17c-2 2-2 5 0 6 1 2 4 2 6 0l17-17c2-2 2-5 0-6-1-1-2-2-3-2z m-17 0c-1 0-2 1-3 2-2 1-2 4 0 6l17 17c2 2 5 2 6 0 2-1 2-4 0-6l-17-17c-1-1-2-2-3-2z m17-38c-1 0-2 0-3 1l-17 18c-2 1-2 4 0 5 1 2 4 2 6 0l17-17c2-2 2-4 0-6-1-1-2-1-3-1z m-17 0c-1 0-2 0-3 1-2 2-2 4 0 6l17 17c2 2 5 2 6 0 2-1 2-4 0-5l-17-18c-1-1-2-1-3-1z"/>
<glyph glyph-name="christian" unicode="&#99;" d="M256 448c-18 0-32-14-32-32l0-75-75 0c-17 0-32-14-32-32 0-17 15-32 32-32l75 0 0-181c0-18 14-32 32-32 18 0 32 14 32 32l0 181 75 0c17 0 32 15 32 32 0 18-15 32-32 32l-75 0 0 75c0 18-14 32-32 32z"/>
<glyph glyph-name="can-green" unicode="&#100;" d="M54 273c0 0 0 0 0 0 9-12 20-23 32-34 7 10 15 18 23 25 1 1 3 2 4 3 0 0 0 0 0 0-10 10-18 21-25 34-9-6-19-13-29-22-1-2-3-4-5-6z m113 8c-2 2-4 4-6 5-8 9-14 18-19 29-4 0-7 0-11 0-12-1-24-5-35-11 6-12 14-23 24-32 0 0 0-1 0-1 1 0 1 0 1 0 15 9 31 11 46 10z m25 75c0 6 0 12 1 18 2 8 4 16 8 24-15 8-31 13-51 16-4-13-7-27-8-41 15-1 28-5 41-11 3-2 6-4 9-6z m-99-122c10-8 21-15 33-19 6 7 12 12 19 17 6 4 12 7 18 9-1 0-3 1-4 1-14 3-28 9-39 18-10-6-19-15-27-26z m141 217c-16 10-34 21-54 30-4-6-17-29-27-59 19-3 36-8 51-15 8 16 18 31 30 44z m-74-284c3 10 7 20 12 28 1 3 3 6 5 9-16-4-31-4-46 1 0-1 0-1-1-1-6-10-10-21-12-34 14-4 28-5 42-3z m-52 5c3 13 7 25 13 36-11 4-22 11-33 19-7-12-13-25-17-40 11-6 24-11 37-15z m188 199c-7 27-25 52-55 75-12-13-22-28-30-43 13-8 23-16 31-27 27-35 15-84 12-96 0 0 1-1 1-1 3 2 5 5 9 8 0 0 3-4 6-9 1 0 1 0 2 0 2 1 3 1 6 2 0 0 0 0 0 0 0 0 0 0 0 0 1 0 1 0 2 1 0 0 2-5 2-12 2 0 3 0 5 0 2-1 3-1 5-1 0 0-1-5-3-11 2 0 3-1 5-2 1-1 2-2 3-3 0 0-3-4-8-8 2-2 4-5 5-8 0 0 1-1 1-1 0 0-5-3-11-4 1-3 1-6 2-10 0 0-1 0-2 0 0 0 0-1-1-1 2 0 3-2 5-3 5-4 13-9 23-14-3 8-8 15-13 22 6-8 12-15 16-23 15-7 32-12 52-11 43 2 86 34 129 96-14 10-27 20-40 27-15-38-36-65-63-80-9-5-19-8-29-9-30-4-64 10-65 10 9-3 54-13 90 7 38 20 64 67 77 140-20 4-38 7-54 8 2-41-5-74-24-98-26-36-84-39-86-39 3 0 9 1 17 4 18 5 45 17 63 40 26 35 29 90 10 162-20-4-37-9-53-15 22-37 30-72 23-103-9-45-53-68-61-72 4 3 19 14 32 30 9 12 17 27 21 44 9 42-11 93-59 150-9-6-28-21-48-41 32-24 51-51 58-80 9-39-13-75-22-87l0 0c0 0-1-2-3-3 3 5 9 15 13 30 5 16 9 37 4 59z m11-267c6 12 10 25 12 38 0 0 0 0 0 1-15 7-27 17-36 29 1-16-2-31-9-45 9-9 20-17 33-23z m-223 253c-2 0-4-1-7-2 0 0 0 0 0-1 4-13 8-28 15-41 11 5 23 9 35 10 1 0 2 1 3 1 3 0 6 0 9 0-1 0-1 1-1 2 0 0-1 1-1 2-3 12-4 24-4 36-15 0-31-2-49-7z m135-223c1-1 1-2 2-4 3-11 10-22 18-32 9 7 17 16 23 26 0 1 1 1 1 2-10 12-15 26-18 39-6-12-15-23-26-31z m-11 44c-12-10-25-16-41-19 0 0 0 0 0 0-1-12 0-25 3-38 14 3 27 8 38 15 1 0 1 1 1 1 1 0 1 0 1 0-3 16-1 31 2 43-1-1-3-2-4-2z m106 17c-15 9-26 20-32 25-2 0-4 0-7 1-1-3-2-6-3-10 0 0-4 2-9 4-1 1-1 1-2 1 0 0 0 0 0 0-2-2-4-4-6-7 0 0-4 4-8 9-1-1-2-1-4-2-1 0-3-1-5-2 0 0-2 5-3 11-2 0-4 1-6 1-1 0-2 0-4 0 0 0 1 5 2 11-2 1-5 3-8 4 0 0 0 0 0 1 0 0 2 4 6 8-1 2-3 4-4 6-1 1-1 2-1 2 0 0 4 3 9 6-1 2-1 6-2 9 0 0 7 2 14 1 1 3 2 7 4 11 0 0 4-2 9-5 1 12 6 58-19 91-7 9-16 17-27 23-3-7-5-14-6-22-2-7-3-15-3-22 26-24 35-69 35-71-2 8-12 37-34 59 2-18 8-35 19-50-14 18-23 37-26 56-4 4-9 7-15 10-10 5-23 9-37 10 0-12 1-23 4-34 1-3 2-5 2-7 37-6 71-44 70-43-6 6-33 28-66 34 2-7 5-12 9-18 2-3 4-6 6-9 2-2 3-4 5-6 1 0 2 0 3 0 20-2 42-12 43-12-4 1-18 5-35 6-2 0-3 0-5 0l20-14c-9 4-16 9-23 14-15 0-31-2-47-10 11-9 23-16 36-20 2-1 3-1 5-2 18 7 42 9 44 9-5-1-19-4-35-11 6-1 12-1 18-1-7-1-14-1-21 0-13-7-27-16-38-28 14-4 29-6 44-4 0 0 0 0 0 0 14 16 29 26 34 29-4-3-15-13-26-28 10 2 19 5 28 11-10-6-20-11-30-14-7-11-14-24-17-38 14 2 28 7 40 15 1 0 3 1 4 2 5 17 16 34 17 36-2-5-7-16-11-31 7 5 13 11 18 19-6-9-12-16-19-23-2-13-3-28-1-44 10 8 19 17 27 28 0 0-1 1-1 2 0 2 0 4-1 7-1 15 1 33 1 34 0-5 0-20 5-37 4 8 7 16 9 24-2-10-5-19-8-27 3-13 9-27 19-39 6 12 11 26 12 41-11 17-17 33-18 39 1-2 2-5 4-9 3-6 8-14 15-22 0 6-1 12-2 19 2-7 3-14 4-21 9-11 21-22 37-30 1 15-1 30-6 44z m-99-73c-1 2-2 4-2 6 0 0 0 1-1 1 0 0 0 0 0 0-12-8-26-13-40-16 5-14 12-29 22-44 13 6 26 14 38 23-7 10-13 20-17 30z m54-2c0 0 0-1 0-1-7-10-15-20-25-28 10-10 21-20 35-29 9 11 17 22 24 35-13 6-24 13-34 23z m-31-34c-13-10-26-18-39-24 9-14 21-28 35-43 9 7 24 20 40 37-14 9-26 19-36 30z m48-28c17-10 35-19 57-27 7 18 13 35 17 51-18 2-35 6-49 11-7-13-16-25-25-35z m80 124c-18-1-34 4-48 11 7-14 11-29 10-45 40-15 92-4 156 33-10 18-19 33-28 46-30-28-60-43-90-45z m-39-43c-2-13-6-26-12-38 29-12 67-15 114-12-1 21-3 39-6 55-37-12-69-14-96-5z m-246 93c-12 11-23 22-33 34-15-19-26-36-31-45 7-5 24-18 46-30 5 16 11 30 18 41z m40-125c4-17 11-36 19-57 12 3 28 8 46 16-10 15-17 30-22 45-14-3-29-4-43-4z m-46 257c22 6 41 9 59 9 1 15 4 29 8 42-26 3-50 3-73 2 0-1 0-3 0-6 1-9 2-27 6-47z m9-55c-6 13-11 28-15 42-22-10-39-22-47-28 4-7 13-24 27-43 11 12 23 22 35 29z m78-190c-3 13-4 26-3 39-14-1-28 0-43 3-1-13 0-29 3-45 14 0 29 0 43 3z m-55 45c-14 4-27 9-39 15-5-17-8-35-11-56 9-2 28-6 51-7-2 17-3 33-1 48z"/>
<glyph glyph-name="islam" unicode="&#101;" d="M245 437c-100 0-181-81-181-181 0-100 81-181 181-181 56 0 106 25 140 65-22-14-48-23-76-23-76 0-138 62-138 139 0 77 62 139 138 139 28 0 54-9 76-23-34 40-84 65-140 65z m107-85l-21-64-75 0 64-43-32-74 64 42 64-42-32 74 64 43-75 0z"/>
<glyph glyph-name="jewish" unicode="&#102;" d="M256 448l-64-85-107 0 64-107-64-107 107 0 64-85 64 85 107 0-64 107 64 107-107 0z"/>
<glyph glyph-name="can-ndp" unicode="&#103;" d="M215 309l0-37-28 37-42 0 0-112 42 0 0 38 28-38 42 0 0 112z m241 0l-62 0 0-112 44 0 0 21 18 0c23 0 50 12 50 46 0 34-27 45-50 45z m-2-58l-16 0 0 26 16 0c4 0 12-4 12-13 0-10-8-13-12-13z m-127 58l-56 0 0-112 56 0c28 0 56 14 56 56 0 42-28 56-56 56z m-2-73l-12 0 0 34 12 0c9 0 17-4 17-17 0-12-8-17-17-17z m-196 9c-2 0-4 0-6 1-1 1-1 3 0 5 1 3 3 8 6 17 0 1-1 2-2 1-1 0-6-3-11-4-3 0-8-2-10 1-1 0-1 2-1 3 0 1 0 7-2 4-9-12-18-22-17-11 1 11 3 23 5 34 0 1-1 2-2 1-2-1-3-2-5-3-2-1-4-1-6 0-2 2-9 19-10 21-1 2-1 2-3 0 0-2-5-12-8-17-2-4-7-1-10 0-1 1-1 2-2 2-1 1-1 1-2 1-1 0 0-2 0-3 2-8 5-27 5-31 0-4-2-3-3-2-1 1-10 8-20 13-1 0-2 0-1-1 0-2 0-3 0-4 1-2 1-6-2-6-6 0-14 1-17 1-2-1-2-1-1-3 1-2 4-5 8-14 1-3 1-6-2-8-1 0-3-1-4-2-1-1 4-3 5-3 6-2 20-7 24-13 1-2-1-4-2-6-1-1-3-4-1-4 11 2 21 2 32-1l-1-24 8 0-1 22c7-3 15-3 23-2 2 0 5 1 7 1 4 2 1 3 0 3-2 1-4 4 0 7 11 5 16 8 29 22 1 1 1 2 0 2"/>
<glyph glyph-name="can-pc" unicode="&#104;" d="M226 83c-19-12-26-12-38-11-15 1-38 19-46 55-13 59 4 136 44 208 53 96 137 156 208 158 0 0 0 0-1 0l-128 0c-73 1-165-60-219-158-40-72-54-148-42-208 3-15 10-31 19-42 8-11 25-30 45-38 16-7 42-12 67-8 36 5 91 44 91 44m286 254c1 17-1 33-4 48-3 16-10 32-19 43-8 11-27 30-45 38-21 9-45 11-66 8-33-3-91-44-91-44 19 11 26 12 37 11 16-2 38-19 46-55 5-22 5-47 2-73z m-230-126l62 30-13 6 25 30-35-7 2 15-35-28c-1 0-1 0-1 0-1 0-2 0-1 1 0 0 0 0 0 1l26 46-17-7-4 29-26-29-12 7-11-47 0 0c-1-1-1-1-2-1-1 0-1 0-1 0l-14 28-10-16-29 8 1-30-18-7 38-29c1 0 1-1 1-2 0 0-1-1-1-2l-16-14 46 6-16-37 9 0 13 36 42-4-5 14c0 0 0 1 0 1 0 1 1 2 2 2m203 4c-6-14-10-21-18-37-6-10-11-19-17-27-56-82-140-130-204-131l-127 0c0 0-1 0-1 0 72 1 155 62 208 158 2 3 4 6 5 9l1 0z"/>
<glyph glyph-name="can-politics" unicode="&#105;" d="M0 405l120 0 0-298-120 0z m392 0l120 0 0-298-120 0z m-272 0l272 0 0-298-272 0z m136-38l-18-35c-2-4-5-3-9-1l-13 7 10-53c2-10-5-10-8-6l-22 26-4-13c0-2-2-4-5-3l-28 6 7-28c2-6 3-9-1-11l-10-4 48-42c2-1 3-4 3-7l-5-14c17 2 32 4 49 6 1 0 4-2 4-4l-2-53 8 0-1 53c0 2 2 4 3 4 17-2 32-4 49-6l-4 14c-1 3 0 6 2 7l49 42-10 4c-5 2-4 5-2 11l7 28-28-6c-3 0-5 1-5 3l-4 13-22-26c-3-4-10-4-8 6l10 53-13-7c-3-2-7-3-9 1z"/>
<glyph glyph-name="religion" unicode="&#106;" d="M429 230l-94 0 0 116c0 2-2 4-5 4l-30 0 0 67c0 2-3 5-5 5l-80 0c-2 0-5-3-5-5l0-67-28 0c-3 0-5-2-5-4l0-116-94 0c-3 0-5-2-5-5l0-127c0-3 2-5 5-5l346 0c3 0 5 2 5 5l0 127c0 3-2 5-5 5z m-341-10l89 0 0-117-89 0z m99 5l0 116 23 0 0-34c0-3 3-5 5-5 3 0 5 2 5 5l0 105 70 0 0-105c0-3 2-5 5-5 2 0 5 2 5 5l0 34 25 0 0-238-33 0 0 122c0 1 0 1 0 2 0 19-18 36-38 36-19 0-36-16-37-34 0-1-1-1-1-2l0-124-29 0 0 122z m39-3l56 0 0-117-56 0z m1 10c3 11 14 22 27 22 14 0 25-11 27-22z m197-129l-89 0 0 117 89 0z m-66 26l43 0c3 0 5 2 5 5l0 55c0 3-2 5-5 5l-43 0c-3 0-5-2-5-5l0-55c0-3 2-5 5-5z m38 10l-33 0 0 18 33 0z m-33 45l33 0 0-18-33 0z m-209 10l-43 0c-3 0-5-2-5-5l0-55c0-3 2-5 5-5l43 0c3 0 5 2 5 5l0 55c0 3-2 5-5 5z m-38-10l33 0 0-18-33 0z m33-45l-33 0 0 18 33 0z m85 231l16 0 0-43c0-3 2-5 5-5 3 0 5 2 5 5l0 43 16 0c3 0 5 2 5 5 0 3-2 5-5 5l-16 0 0 16c0 3-2 5-5 5-3 0-5-2-5-5l0-16-16 0c-2 0-5-2-5-5 0-3 3-5 5-5z"/>
<glyph glyph-name="can-liberal" unicode="&#107;" d="M483 350c0 0-1 0-1 0 0-1-21-17-38-19-1 0-2 0-2 1-2 2-1 6 0 8 0 2 0 3 0 3-1 1-2 0-2-1-5-7-7-10-15-18l0 1c-7-5-18-10-25-9-2 0-4 2-5 4-3 6-4 22 14 62 1 1 0 1 0 2 0 0-1 0-1 0 0 0-9-6-18-4-14 2-23 19-27 48 0 0 0 1-1 1 0 0-1 0-1-1-13-26-27-39-41-37-9 2-15 10-15 10-1 1-1 1-2 1 0-1 0-1 0-2 3-44-2-59-7-63-2-2-4-3-7-2-7 1-16 10-21 17-5 9-6 12-8 21 0 0 0 1-1 1-1 0-1 0-2-2 0-3-1-7-2-8-1-1-2-1-3 0-15 8-29 29-29 29 0 1-1 1-1 1-1 0-1-1-1-1 11-50 7-66 2-71-1-2-3-3-6-2-3 0-6 2-6 2 0 0-1 0-1 0 0 0-1-1 0-2l0 0c0 0 0 0 0 0 0 0 1-1 1-1 13-17 20-31 21-40 0-6-2-11-7-14-6-3-15-1-17-1 0 0-1 0-1 0 0 0-1 0-1-1 0 0 0 0 0-1 1-1 19-32 45-40 2-1 3-1 4-1 3-1 6-1 8-2 21-3 42-3 56-1-12-31-45-37-45-37-2-1-3-1-4-1 0 0 0 0-1 0-2 0-2-3-4-7l-5-8c-3-7 4-8 8-7l0 0c7 1 14 4 20 7 9 4 18 9 24 16 7 7 13 15 16 24 2 4 3 8 4 12l0 0c12-7 34-15 55-19 3 0 6-1 8-1 2 0 3 0 4 0 28-1 54 22 55 23 1 1 1 1 1 1-1 1-1 1-1 1 0 0 0 0-1 0-2 1-11 2-16 7-4 5-4 10-2 15 4 9 16 19 33 31 1 0 1 1 1 1 0 0 0 0 1 0l0 0c0 1 1 1 0 2 0 0 0 1-1 0 0 0-3-1-6 0-3 0-5 2-6 4-2 6 0 23 26 66 1 1 1 1 0 2z m-140-230l-15 5c-8 2-16-52-73-52l-47 0c-32 0-43 11-43 60l0 273c0 22 15 32 30 35 4 1 9 1 11 8l3 10c3 8-2 10-7 10l-148 0c-5 0-8-2-10-5l-4-12c-3-4-1-9 6-10 29-7 37-11 37-36l0-300c0-22-15-32-29-35-4-1-9-1-11-8l-4-10c-3-8 3-9 8-9l272 0c16 0 27 5 27 14l0 57c0 2-1 5-3 5z"/>
</font></defs></svg>
